111
112
113
121
122
123
124
125
127
1321
1322
133
134
135
139
153
154
211
212
213
2201
2202
2203
2204
221
2221
2222
2223
223
224
2251
2252
227
2321
2322
233
234
235
236
239
253
254
301
302
303
411
412
421
422
431
432
471
472
481
crack
